…
``` r
## Load the library
library(cellphaseR)
#> Registered S3 methods overwritten by 'ggpp':
#>   method                  from   
#>   heightDetails.titleGrob ggplot2
#>   widthDetails.titleGrob  ggplot2

## View the example dataset
PIdata
#> # A tibble: 7,570 × 8
#>    Well  Cells `PI Obj Integral` `Object Index` `PI Obj Size` `PI Obj Area`
#>    <chr> <chr>             <dbl>          <dbl>         <dbl>         <dbl>
#>  1 D4    wtMEF            301821            154          12             101
#>  2 D4    wtMEF            544126            252          11.4           101
#>  3 D4    wtMEF            324017            524          11.6           101
#>  4 D4    wtMEF            319824            553          11.4           101
#>  5 D5    wtMEF            312154             58          12.1           101
#>  6 D5    wtMEF            677514            114          11.4           101
#>  7 D5    wtMEF            327071            139          11.7           101
#>  8 D5    wtMEF            497192            153          11.5           101
#>  9 D5    wtMEF            314237            175          11.6           101
#> 10 D5    wtMEF            322754            244          11.4           101
#> # ℹ 7,560 more rows
#> # ℹ 2 more variables: `PI Obj Mean` <dbl>, `PI Obj Peak` <dbl>
```
…
